simulation/qsim/portao.msim.vcd
$comment
	File created using the following command:
		vcd file portao.msim.vcd -direction
$end
$date
	Mon Nov 24 20:58:14 2025
$end
$version
	ModelSim Version 10.1d
$end
$timescale
	1ps
$end
$scope module portao_vlg_vec_tst $end
$var reg 1 ! bot $end
$var reg 1 " clk $end
$var reg 1 # end_close $end
$var reg 1 $ end_open $end
$var reg 1 % obst $end
$var reg 1 & rst_n $end
$var reg 1 ' stop $end
$var wire 1 ( motor_close $end
$var wire 1 ) motor_open $end
$var wire 1 * state_debug [2] $end
$var wire 1 + state_debug [1] $end
$var wire 1 , state_debug [0] $end
$var wire 1 - sampler $end
$scope module i1 $end
$var wire 1 . gnd $end
$var wire 1 / vcc $end
$var wire 1 0 unknown $end
$var tri1 1 1 devclrn $end
$var tri1 1 2 devpor $end
$var tri1 1 3 devoe $end
$var wire 1 4 timer_count[10]~37_combout $end
$var wire 1 5 timer_count[11]~39_combout $end
$var wire 1 6 timer_count[14]~46 $end
$var wire 1 7 timer_count[15]~47_combout $end
$var wire 1 8 bot_sync_1~regout $end
$var wire 1 9 state_next.FECHADO~1_combout $end
$var wire 1 : Equal0~2_combout $end
$var wire 1 ; state_next.ABERTO~0_combout $end
$var wire 1 < state_next.PARE~0_combout $end
$var wire 1 = obst~combout $end
$var wire 1 > end_open~combout $end
$var wire 1 ? clk~combout $end
$var wire 1 @ clk~clkctrl_outclk $end
$var wire 1 A bot~combout $end
$var wire 1 B rst_n~combout $end
$var wire 1 C bot_sync_0~regout $end
$var wire 1 D bot_rise~0_combout $end
$var wire 1 E stop~combout $end
$var wire 1 F state_reg.EMERGENCIA~regout $end
$var wire 1 G state_next.FECHADO~0_combout $end
$var wire 1 H state_next.ABERTO~1_combout $end
$var wire 1 I state_reg.ABERTO~regout $end
$var wire 1 J state_next.FECHANDO~0_combout $end
$var wire 1 K timer_count[0]~16_combout $end
$var wire 1 L timer_count[15]~22_combout $end
$var wire 1 M timer_count[0]~17 $end
$var wire 1 N timer_count[1]~18_combout $end
$var wire 1 O timer_count[1]~19 $end
$var wire 1 P timer_count[2]~20_combout $end
$var wire 1 Q timer_count[2]~21 $end
$var wire 1 R timer_count[3]~24 $end
$var wire 1 S timer_count[4]~25_combout $end
$var wire 1 T timer_count[4]~26 $end
$var wire 1 U timer_count[5]~27_combout $end
$var wire 1 V timer_count[5]~28 $end
$var wire 1 W timer_count[6]~29_combout $end
$var wire 1 X timer_count[6]~30 $end
$var wire 1 Y timer_count[7]~31_combout $end
$var wire 1 Z Equal0~1_combout $end
$var wire 1 [ timer_count[3]~23_combout $end
$var wire 1 \ Equal0~0_combout $end
$var wire 1 ] timer_count[7]~32 $end
$var wire 1 ^ timer_count[8]~33_combout $end
$var wire 1 _ timer_count[8]~34 $end
$var wire 1 ` timer_count[9]~35_combout $end
$var wire 1 a timer_count[9]~36 $end
$var wire 1 b timer_count[10]~38 $end
$var wire 1 c timer_count[11]~40 $end
$var wire 1 d timer_count[12]~42 $end
$var wire 1 e timer_count[13]~43_combout $end
$var wire 1 f timer_count[13]~44 $end
$var wire 1 g timer_count[14]~45_combout $end
$var wire 1 h timer_count[12]~41_combout $end
$var wire 1 i Equal0~3_combout $end
$var wire 1 j Equal0~4_combout $end
$var wire 1 k state_next.FECHANDO~1_combout $end
$var wire 1 l state_next.FECHANDO~2_combout $end
$var wire 1 m state_reg.FECHANDO~regout $end
$var wire 1 n state_next.FECHADO~6_combout $end
$var wire 1 o state_next.FECHADO~7_combout $end
$var wire 1 p state_reg.FECHADO~regout $end
$var wire 1 q end_close~combout $end
$var wire 1 r state_next.PARE~1_combout $end
$var wire 1 s state_next.PARE~2_combout $end
$var wire 1 t state_next.PARE~3_combout $end
$var wire 1 u state_reg.PARE~regout $end
$var wire 1 v state_next.FECHADO~2_combout $end
$var wire 1 w state_next.FECHADO~3_combout $end
$var wire 1 x state_next.FECHADO~4_combout $end
$var wire 1 y state_next.FECHADO~5_combout $end
$var wire 1 z state_next.ABRINDO~0_combout $end
$var wire 1 { state_next.ABRINDO~1_combout $end
$var wire 1 | state_next.ABRINDO~2_combout $end
$var wire 1 } state_reg.ABRINDO~regout $end
$var wire 1 ~ WideOr0~0_combout $end
$var wire 1 !! state_debug~0_combout $end
$var wire 1 "! state_debug~1_combout $end
$var wire 1 #! timer_count [15] $end
$var wire 1 $! timer_count [14] $end
$var wire 1 %! timer_count [13] $end
$var wire 1 &! timer_count [12] $end
$var wire 1 '! timer_count [11] $end
$var wire 1 (! timer_count [10] $end
$var wire 1 )! timer_count [9] $end
$var wire 1 *! timer_count [8] $end
$var wire 1 +! timer_count [7] $end
$var wire 1 ,! timer_count [6] $end
$var wire 1 -! timer_count [5] $end
$var wire 1 .! timer_count [4] $end
$var wire 1 /! timer_count [3] $end
$var wire 1 0! timer_count [2] $end
$var wire 1 1! timer_count [1] $end
$var wire 1 2! timer_count [0] $end
$upscope $end
$upscope $end
$enddefinitions $end
#0
$dumpvars
0!
0"
0#
0$
0%
0&
0'
0(
0)
0,
0+
0*
x-
0.
1/
x0
11
12
13
04
05
06
07
08
19
1:
0;
0<
0=
0>
0?
0@
0A
0B
0C
0D
0E
0F
0G
0H
0I
0J
1K
1L
0M
0N
1O
0P
0Q
1R
0S
0T
0U
1V
0W
0X
0Y
1Z
0[
0\
1]
0^
0_
0`
1a
0b
1c
0d
0e
1f
0g
0h
1i
0j
0k
0l
0m
0n
0o
0p
0q
0r
0s
0t
0u
0v
1w
1x
1y
0z
0{
0|
0}
0~
0!!
0"!
02!
01!
00!
0/!
0.!
0-!
0,!
0+!
0*!
0)!
0(!
0'!
0&!
0%!
0$!
0#!
$end
#10000
1!
1"
1&
1A
1?
1B
1@
0-
1C
1D
1{
0x
1|
0y
1o
#20000
0"
0?
0@
1-
#30000
1"
1?
1@
0-
1}
1p
18
1~
1<
0{
1v
0D
1)
0|
1x
1,
1y
1|
#40000
0"
0?
0@
1-
#50000
1"
1?
1@
0-
#60000
0!
0"
0A
0?
0@
1-
#70000
1"
1?
1@
0-
0C
#80000
0"
0?
0@
1-
#90000
1$
1"
1>
1?
1@
0-
0<
1;
09
1H
0x
0y
0|
08
#100000
0"
0?
0@
1-
#110000
1"
1?
1@
0-
0}
1I
0~
0;
19
1!!
1J
0)
0H
1x
0,
1+
1y
1H
#120000
0$
0"
0>
0?
0@
1-
#130000
1"
1?
1@
0-
12!
1M
0K
1N
#140000
0"
0?
0@
1-
#150000
1!
1"
1A
1?
1@
0-
11!
02!
1C
0O
0N
0M
1K
1D
1P
1O
1N
0y
1k
0P
1l
0H
#160000
0"
0?
0@
1-
#170000
1"
1?
1@
0-
1m
12!
0I
18
1~
0v
1r
1M
0K
1y
0J
0D
1(
0O
0N
0k
1,
1P
#180000
0"
0?
0@
1-
#190000
0!
1"
0A
1?
1@
0-
01!
02!
0C
1O
1N
0M
1K
0P
0N
#200000
0"
0?
0@
1-
#210000
1"
1?
1@
0-
08
#220000
0"
0?
0@
1-
#230000
1#
1"
1q
1?
1@
0-
0w
0r
1n
0x
0o
0y
0l
#240000
0"
0?
0@
1-
#250000
1"
1?
1@
0-
0p
0m
0!!
0~
1w
0n
0(
1x
1o
0+
0,
1y
0o
#260000
0"
0?
0@
1-
#270000
1"
1?
1@
0-
#280000
0"
0?
0@
1-
#290000
0#
1"
0q
1?
1@
0-
#300000
0"
0?
0@
1-
#310000
1!
1"
1A
1?
1@
0-
1C
1D
1{
0x
1|
0y
1o
#320000
0"
0?
0@
1-
#330000
1"
1?
1@
0-
1}
1p
18
1~
1<
0{
1v
0D
1)
0|
1x
1,
1y
1|
#340000
0"
0?
0@
1-
#350000
1"
1?
1@
0-
#360000
0"
0?
0@
1-
#370000
1"
1?
1@
0-
#380000
0!
0"
0A
0?
0@
1-
#390000
1"
1?
1@
0-
0C
#400000
1$
0"
1>
0?
0@
1-
0<
1;
09
1H
0x
0y
0|
#410000
1"
1?
1@
0-
0}
1I
08
0~
0;
19
1!!
1J
0)
0H
1x
0,
1+
1y
1H
#420000
0"
0?
0@
1-
#430000
1"
1?
1@
0-
12!
1M
0K
1N
#440000
0"
0?
0@
1-
#450000
1"
1?
1@
0-
11!
02!
0O
0N
0M
1K
1P
1O
1N
0P
#460000
0$
0"
0>
0?
0@
1-
#470000
1"
1?
1@
0-
12!
1M
0K
0O
0N
1P
#480000
0"
0?
0@
1-
#490000
1!
1"
1A
1?
1@
0-
10!
01!
02!
1C
1\
1Q
0P
1O
1N
0M
1K
1D
1j
1[
0Q
1P
0N
0y
1k
0L
0[
1l
0H
#500000
0"
0?
0@
1-
#510000
1"
1?
1@
0-
1m
0I
18
1~
0v
1r
1y
1L
0J
0D
1(
0k
1,
#520000
0"
0?
0@
1-
#530000
1"
1?
1@
0-
00!
0\
0P
0j
#540000
0"
0?
0@
1-
#550000
0!
1"
0A
1?
1@
0-
0C
#560000
0"
0?
0@
1-
#570000
1"
1?
1@
0-
08
#580000
0"
0?
0@
1-
#590000
1!
1"
1A
1?
1@
0-
1C
1D
0x
1s
0y
1t
0l
#600000
0"
0?
0@
1-
#610000
1"
1?
1@
0-
1u
0m
18
1"!
1J
0!!
0~
0r
0D
0(
0s
1x
0J
1*
0+
0,
0t
1y
1t
#620000
0"
0?
0@
1-
#630000
1"
1?
1@
0-
#640000
0"
0?
0@
1-
#650000
1"
1?
1@
0-
#660000
0!
0"
0A
0?
0@
1-
#670000
1"
1?
1@
0-
0C
#680000
0"
0?
0@
1-
#690000
1!
1"
1A
1?
1@
0-
1C
08
1D
0x
1J
0y
1k
0t
1l
#700000
0"
0?
0@
1-
#710000
1"
1?
1@
0-
0u
1m
18
0"!
0J
1!!
1~
1r
0D
1(
0k
1x
0*
1+
1,
0l
1y
1l
#720000
0"
0?
0@
1-
#730000
1"
1?
1@
0-
#740000
0!
0"
0A
0?
0@
1-
#750000
1"
1?
1@
0-
0C
#760000
1%
0"
1=
0?
0@
1-
1z
0w
0r
1{
0x
1|
0y
0l
#770000
1"
1?
1@
0-
1}
0m
08
1<
0!!
0z
1w
1v
1)
0(
0{
1x
0+
0|
1y
1|
#780000
0"
0?
0@
1-
#790000
1"
1?
1@
0-
#800000
0"
0?
0@
1-
#810000
0%
1"
0=
1?
1@
0-
#820000
0"
0?
0@
1-
#830000
1"
1?
1@
0-
#840000
0"
0?
0@
1-
#850000
1"
1?
1@
0-
#860000
1$
0"
1>
0?
0@
1-
0<
1;
09
1H
0x
0y
0|
#870000
1"
1?
1@
0-
0}
1I
0~
0;
19
1!!
1J
0)
0H
1x
0,
1+
1y
1H
#880000
0"
0?
0@
1-
#890000
1"
1?
1@
0-
12!
1M
0K
1N
#900000
0"
0?
0@
1-
#910000
1"
1?
1@
0-
11!
02!
0O
0N
0M
1K
1P
1O
1N
0P
#920000
0$
0"
0>
0?
0@
1-
#930000
1"
1?
1@
0-
12!
1M
0K
0O
0N
1P
#940000
0"
0?
0@
1-
#950000
1"
1?
1@
0-
10!
01!
02!
1\
1Q
0P
1O
1N
0M
1K
1j
1[
0Q
1P
0N
0y
1k
0L
0[
1l
0H
#960000
0"
0?
0@
1-
#970000
1"
1?
1@
0-
1m
0I
1~
0v
1r
1y
1L
0J
1(
0k
1,
#980000
0"
0?
0@
1-
#990000
1"
1?
1@
0-
00!
0\
0P
0j
#1000000
0"
0?
0@
1-
#1010000
1"
1?
1@
0-
#1020000
0"
0?
0@
1-
#1030000
1"
1?
1@
0-
#1040000
0"
0?
0@
1-
#1050000
1"
1?
1@
0-
#1060000
0"
0?
0@
1-
#1070000
1"
1?
1@
0-
#1080000
0"
0?
0@
1-
#1090000
1"
1?
1@
0-
#1100000
0"
0?
0@
1-
#1110000
1"
1?
1@
0-
#1120000
0"
0?
0@
1-
#1130000
1"
1?
1@
0-
#1140000
0"
0?
0@
1-
#1150000
1"
1?
1@
0-
#1160000
0"
0?
0@
1-
#1170000
1"
1?
1@
0-
#1180000
0"
0?
0@
1-
#1190000
1"
1?
1@
0-
#1200000
0"
0?
0@
1-
#1210000
1"
1?
1@
0-
#1220000
0"
0?
0@
1-
#1230000
1"
1?
1@
0-
#1240000
1'
0"
1E
0?
0@
1-
1G
0l
#1250000
1"
1?
1@
0-
0m
1F
0!!
1v
0r
1"!
0(
0+
1*
#1260000
0"
0?
0@
1-
#1270000
1"
1?
1@
0-
#1280000
0"
0?
0@
1-
#1290000
1"
1?
1@
0-
#1300000
0"
0?
0@
1-
#1310000
1"
1?
1@
0-
#1320000
0"
0?
0@
1-
#1330000
1"
1?
1@
0-
#1340000
0"
0?
0@
1-
#1350000
1"
1?
1@
0-
#1360000
0'
0"
0E
0?
0@
1-
#1370000
1"
1?
1@
0-
#1380000
0"
0?
0@
1-
#1390000
1"
1?
1@
0-
#1400000
0"
0?
0@
1-
#1410000
1"
1?
1@
0-
#1420000
0"
0?
0@
1-
#1430000
1"
1?
1@
0-
#1440000
0"
0?
0@
1-
#1450000
1"
1?
1@
0-
#1460000
0"
0?
0@
1-
#1470000
1"
1?
1@
0-
#1480000
0"
0?
0@
1-
#1490000
1"
1?
1@
0-
#1500000
0"
0?
0@
1-
#1510000
1"
1?
1@
0-
#1520000
0"
0?
0@
1-
#1530000
1"
1?
1@
0-
#1540000
0"
0?
0@
1-
#1550000
1"
1?
1@
0-
#1560000
0"
0?
0@
1-
#1570000
1"
1?
1@
0-
#1580000
0"
0?
0@
1-
#1590000
1"
1?
1@
0-
#1600000
0"
0?
0@
1-
#1610000
1"
1?
1@
0-
#1620000
0"
0?
0@
1-
#1630000
1"
1?
1@
0-
#1640000
0"
0?
0@
1-
#1650000
1"
1?
1@
0-
#1660000
0"
0?
0@
1-
#1670000
1"
1?
1@
0-
#1680000
0"
0?
0@
1-
#1690000
1"
1?
1@
0-
#1700000
0"
0?
0@
1-
#1710000
1"
1?
1@
0-
#1720000
0"
0?
0@
1-
#1730000
1"
1?
1@
0-
#1740000
0"
0?
0@
1-
#1750000
1"
1?
1@
0-
#1760000
0"
0?
0@
1-
#1770000
1"
1?
1@
0-
#1780000
0"
0?
0@
1-
#1790000
1"
1?
1@
0-
#1800000
0"
0?
0@
1-
#1810000
1"
1?
1@
0-
#1820000
0"
0?
0@
1-
#1830000
1"
1?
1@
0-
#1840000
0"
0?
0@
1-
#1850000
1"
1?
1@
0-
#1860000
0"
0?
0@
1-
#1870000
1"
1?
1@
0-
#1880000
0"
0?
0@
1-
#1890000
1"
1?
1@
0-
#1900000
0"
0?
0@
1-
#1910000
1"
1?
1@
0-
#1920000
0"
0?
0@
1-
#1930000
1"
1?
1@
0-
#1940000
0"
0?
0@
1-
#1950000
1"
1?
1@
0-
#1960000
0"
0?
0@
1-
#1970000
1"
1?
1@
0-
#1980000
0"
0?
0@
1-
#1990000
1"
1?
1@
0-
