simulation/qsim/portao.msim.vcd
$comment
	File created using the following command:
		vcd file portao.msim.vcd -direction
$end
$date
	Mon Nov 24 22:13:38 2025
$end
$version
	ModelSim Version 10.1d
$end
$timescale
	1ps
$end
$scope module portao_vlg_vec_tst $end
$var reg 1 ! bot $end
$var reg 1 " clk $end
$var reg 1 # end_close $end
$var reg 1 $ end_open $end
$var reg 1 % obst $end
$var reg 1 & rst_n $end
$var wire 1 ' motor_close $end
$var wire 1 ( motor_open $end
$var wire 1 ) state_debug [2] $end
$var wire 1 * state_debug [1] $end
$var wire 1 + state_debug [0] $end
$var wire 1 , sampler $end
$scope module i1 $end
$var wire 1 - gnd $end
$var wire 1 . vcc $end
$var wire 1 / unknown $end
$var tri1 1 0 devclrn $end
$var tri1 1 1 devpor $end
$var tri1 1 2 devoe $end
$var wire 1 3 timer_count[8]~33_combout $end
$var wire 1 4 timer_count[11]~39_combout $end
$var wire 1 5 state_next.ABRINDO~1_combout $end
$var wire 1 6 state_next.ABRINDO~2_combout $end
$var wire 1 7 Equal0~2_combout $end
$var wire 1 8 state_next~5_combout $end
$var wire 1 9 state_next.PARE_ABRINDO~0_combout $end
$var wire 1 : end_close~combout $end
$var wire 1 ; clk~combout $end
$var wire 1 < clk~clkctrl_outclk $end
$var wire 1 = bot~combout $end
$var wire 1 > rst_n~combout $end
$var wire 1 ? bot_sync_0~regout $end
$var wire 1 @ bot_sync_1~regout $end
$var wire 1 A timer_count[0]~17_combout $end
$var wire 1 B end_open~combout $end
$var wire 1 C state_next~6_combout $end
$var wire 1 D state_reg.ABERTO~regout $end
$var wire 1 E timer_count[15]~16_combout $end
$var wire 1 F timer_count[0]~18 $end
$var wire 1 G timer_count[1]~19_combout $end
$var wire 1 H timer_count[1]~20 $end
$var wire 1 I timer_count[2]~21_combout $end
$var wire 1 J timer_count[2]~22 $end
$var wire 1 K timer_count[3]~24 $end
$var wire 1 L timer_count[4]~25_combout $end
$var wire 1 M timer_count[4]~26 $end
$var wire 1 N timer_count[5]~27_combout $end
$var wire 1 O timer_count[5]~28 $end
$var wire 1 P timer_count[6]~29_combout $end
$var wire 1 Q timer_count[6]~30 $end
$var wire 1 R timer_count[7]~31_combout $end
$var wire 1 S Equal0~1_combout $end
$var wire 1 T timer_count[3]~23_combout $end
$var wire 1 U Equal0~0_combout $end
$var wire 1 V timer_count[7]~32 $end
$var wire 1 W timer_count[8]~34 $end
$var wire 1 X timer_count[9]~35_combout $end
$var wire 1 Y timer_count[9]~36 $end
$var wire 1 Z timer_count[10]~37_combout $end
$var wire 1 [ timer_count[10]~38 $end
$var wire 1 \ timer_count[11]~40 $end
$var wire 1 ] timer_count[12]~42 $end
$var wire 1 ^ timer_count[13]~43_combout $end
$var wire 1 _ timer_count[13]~44 $end
$var wire 1 ` timer_count[14]~45_combout $end
$var wire 1 a timer_count[14]~46 $end
$var wire 1 b timer_count[15]~47_combout $end
$var wire 1 c timer_count[12]~41_combout $end
$var wire 1 d Equal0~3_combout $end
$var wire 1 e Equal0~4_combout $end
$var wire 1 f obst~combout $end
$var wire 1 g state_next.FECHANDO~2_combout $end
$var wire 1 h bot_rise~combout $end
$var wire 1 i state_next.PARE_ABRINDO~1_combout $end
$var wire 1 j state_reg.PARE_ABRINDO~regout $end
$var wire 1 k state_next.PARE_FECHANDO~0_combout $end
$var wire 1 l state_next.FECHANDO~5_combout $end
$var wire 1 m state_next.PARE_FECHANDO~1_combout $end
$var wire 1 n state_reg.PARE_FECHANDO~regout $end
$var wire 1 o state_next.FECHANDO~3_combout $end
$var wire 1 p state_next.FECHANDO~4_combout $end
$var wire 1 q state_next.FECHANDO~6_combout $end
$var wire 1 r state_reg.FECHANDO~regout $end
$var wire 1 s state_next.FECHADO~0_combout $end
$var wire 1 t state_reg.FECHADO~regout $end
$var wire 1 u state_next.ABRINDO~3_combout $end
$var wire 1 v state_next.ABRINDO~0_combout $end
$var wire 1 w state_next.ABRINDO~4_combout $end
$var wire 1 x state_reg.ABRINDO~regout $end
$var wire 1 y WideOr2~0_combout $end
$var wire 1 z WideOr1~combout $end
$var wire 1 { WideOr0~combout $end
$var wire 1 | timer_count [15] $end
$var wire 1 } timer_count [14] $end
$var wire 1 ~ timer_count [13] $end
$var wire 1 !! timer_count [12] $end
$var wire 1 "! timer_count [11] $end
$var wire 1 #! timer_count [10] $end
$var wire 1 $! timer_count [9] $end
$var wire 1 %! timer_count [8] $end
$var wire 1 &! timer_count [7] $end
$var wire 1 '! timer_count [6] $end
$var wire 1 (! timer_count [5] $end
$var wire 1 )! timer_count [4] $end
$var wire 1 *! timer_count [3] $end
$var wire 1 +! timer_count [2] $end
$var wire 1 ,! timer_count [1] $end
$var wire 1 -! timer_count [0] $end
$upscope $end
$upscope $end
$enddefinitions $end
#0
$dumpvars
0!
0"
0#
0$
0%
0&
0'
0(
0+
0*
0)
x,
0-
1.
x/
10
11
12
03
04
05
06
17
08
09
0:
0;
0<
0=
0>
0?
0@
1A
0B
0C
0D
1E
0F
0G
1H
0I
0J
1K
0L
0M
0N
1O
0P
0Q
0R
1S
0T
0U
1V
0W
0X
1Y
0Z
0[
1\
0]
0^
1_
0`
0a
0b
0c
1d
0e
0f
0g
0h
0i
0j
0k
1l
0m
0n
0o
0p
0q
0r
0s
0t
1u
1v
0w
0x
1y
0z
0{
0-!
0,!
0+!
0*!
0)!
0(!
0'!
0&!
0%!
0$!
0#!
0"!
0!!
0~
0}
0|
$end
#10000
1!
1"
1&
1=
1;
1>
1<
0,
1?
0u
1h
1w
0l
1s
#20000
0"
0;
0<
1,
#30000
1"
1;
1<
0,
1x
1t
1@
0v
19
0y
0h
1(
0w
1i
1v
09
1+
1w
0i
#40000
0"
0;
0<
1,
#50000
1"
1;
1<
0,
#60000
0!
0"
0=
0;
0<
1,
#70000
1"
1;
1<
0,
0?
#80000
0"
0;
0<
1,
#90000
1$
1"
1B
1;
1<
0,
0v
1C
0w
0@
#100000
0"
0;
0<
1,
#110000
1"
1;
1<
0,
0x
1D
1v
1u
0C
18
1z
1y
0(
1C
1*
0+
#120000
0$
0"
0B
0;
0<
1,
#130000
1"
1;
1<
0,
1-!
1F
0A
1G
#140000
0"
0;
0<
1,
#150000
1!
1"
1=
1;
1<
0,
1,!
0-!
1?
0H
0G
0F
1A
1h
08
1I
1H
1G
1p
0C
0I
1q
#160000
0"
0;
0<
1,
#170000
1"
1;
1<
0,
1r
1-!
0D
1@
1g
1F
0A
0y
0p
1l
0h
1'
1p
0H
0G
0q
1+
1q
1I
#180000
0"
0;
0<
1,
#190000
0!
1"
0=
1;
1<
0,
0,!
0-!
0?
1H
1G
0F
1A
0I
0G
#200000
0"
0;
0<
1,
#210000
1"
1;
1<
0,
0@
#220000
0"
0;
0<
1,
#230000
1#
1"
1:
1;
1<
0,
0s
0g
0p
0q
#240000
0"
0;
0<
1,
#250000
1"
1;
1<
0,
0t
0r
1y
0z
0'
0*
0+
#260000
0"
0;
0<
1,
#270000
1"
1;
1<
0,
#280000
0"
0;
0<
1,
#290000
0#
1"
0:
1;
1<
0,
#300000
0"
0;
0<
1,
#310000
1!
1"
1=
1;
1<
0,
1?
0u
1h
1w
0l
1s
#320000
0"
0;
0<
1,
#330000
1"
1;
1<
0,
1x
1t
1@
0v
19
0y
0h
1(
0w
1i
1v
09
1+
1w
0i
#340000
0"
0;
0<
1,
#350000
1"
1;
1<
0,
#360000
0"
0;
0<
1,
#370000
1"
1;
1<
0,
#380000
0!
0"
0=
0;
0<
1,
#390000
1"
1;
1<
0,
0?
#400000
1$
0"
1B
0;
0<
1,
0v
1C
0w
#410000
1"
1;
1<
0,
0x
1D
0@
1v
1u
0C
18
1z
1y
0(
1C
1*
0+
#420000
0"
0;
0<
1,
#430000
1"
1;
1<
0,
1-!
1F
0A
1G
#440000
0"
0;
0<
1,
#450000
1"
1;
1<
0,
1,!
0-!
0H
0G
0F
1A
1I
1H
1G
0I
#460000
0$
0"
0B
0;
0<
1,
#470000
1"
1;
1<
0,
1-!
1F
0A
0H
0G
1I
#480000
0"
0;
0<
1,
#490000
1!
1"
1=
1;
1<
0,
1+!
0,!
0-!
1?
1U
1J
0I
1H
1G
0F
1A
1h
08
1e
1T
0J
1I
0G
1p
0C
1q
0E
0T
#500000
0"
0;
0<
1,
#510000
1"
1;
1<
0,
1r
0D
1@
1g
0y
0p
1l
1E
0h
1'
1p
0q
1+
1q
#520000
0"
0;
0<
1,
#530000
1"
1;
1<
0,
0+!
0U
0I
0e
#540000
0"
0;
0<
1,
#550000
0!
1"
0=
1;
1<
0,
0?
#560000
0"
0;
0<
1,
#570000
1"
1;
1<
0,
0@
#580000
0"
0;
0<
1,
#590000
1!
1"
1=
1;
1<
0,
1?
1h
0p
1m
0q
#600000
0"
0;
0<
1,
#610000
1"
1;
1<
0,
0r
1n
1@
0z
1o
0g
1{
0h
0'
0m
1k
0*
1)
1m
#620000
0"
0;
0<
1,
#630000
1"
1;
1<
0,
#640000
0"
0;
0<
1,
#650000
1"
1;
1<
0,
#660000
0!
0"
0=
0;
0<
1,
#670000
1"
1;
1<
0,
0?
#680000
0"
0;
0<
1,
#690000
1!
1"
1=
1;
1<
0,
0@
1?
1h
1p
0k
1q
0m
#700000
0"
0;
0<
1,
#710000
1"
1;
1<
0,
1r
0n
1@
1z
0o
1g
0{
0h
1'
1*
0)
#720000
0"
0;
0<
1,
#730000
1"
1;
1<
0,
#740000
0!
0"
0=
0;
0<
1,
#750000
1"
1;
1<
0,
0?
#760000
1%
0"
1f
0;
0<
1,
0g
15
0p
16
0q
1w
#770000
1"
1;
1<
0,
1x
0r
0@
0u
0z
05
1(
0'
0l
06
0*
#780000
0"
0;
0<
1,
#790000
1"
1;
1<
0,
#800000
0"
0;
0<
1,
#810000
0%
1"
0f
1;
1<
0,
#820000
0"
0;
0<
1,
#830000
1"
1;
1<
0,
#840000
0"
0;
0<
1,
#850000
1"
1;
1<
0,
#860000
1$
0"
1B
0;
0<
1,
0v
1C
0w
#870000
1"
1;
1<
0,
0x
1D
1v
1u
0C
18
1z
1y
0(
1C
1*
0+
#880000
0"
0;
0<
1,
#890000
1"
1;
1<
0,
1-!
1F
0A
1G
#900000
0"
0;
0<
1,
#910000
1"
1;
1<
0,
1,!
0-!
0H
0G
0F
1A
1I
1H
1G
0I
#920000
0$
0"
0B
0;
0<
1,
#930000
1"
1;
1<
0,
1-!
1F
0A
0H
0G
1I
#940000
0"
0;
0<
1,
#950000
1"
1;
1<
0,
1+!
0,!
0-!
1U
1J
0I
1H
1G
0F
1A
1e
1T
0J
1I
0G
1q
0E
0C
0T
#960000
0"
0;
0<
1,
#970000
1"
1;
1<
0,
1r
0D
1g
0y
0q
1l
1E
08
1'
1p
1+
1q
#980000
0"
0;
0<
1,
#990000
1"
1;
1<
0,
0+!
0U
0I
0e
#1000000
0"
0;
0<
1,
#1010000
1"
1;
1<
0,
#1020000
0"
0;
0<
1,
#1030000
1"
1;
1<
0,
#1040000
0"
0;
0<
1,
#1050000
1"
1;
1<
0,
#1060000
0"
0;
0<
1,
#1070000
1"
1;
1<
0,
#1080000
0"
0;
0<
1,
#1090000
1"
1;
1<
0,
#1100000
0"
0;
0<
1,
#1110000
1"
1;
1<
0,
#1120000
0"
0;
0<
1,
#1130000
1"
1;
1<
0,
#1140000
0"
0;
0<
1,
#1150000
1"
1;
1<
0,
#1160000
0"
0;
0<
1,
#1170000
1"
1;
1<
0,
#1180000
0"
0;
0<
1,
#1190000
1"
1;
1<
0,
#1200000
0"
0;
0<
1,
#1210000
1"
1;
1<
0,
#1220000
0"
0;
0<
1,
#1230000
1"
1;
1<
0,
#1240000
0"
0;
0<
1,
#1250000
1"
1;
1<
0,
#1260000
0"
0;
0<
1,
#1270000
1"
1;
1<
0,
#1280000
0"
0;
0<
1,
#1290000
1"
1;
1<
0,
#1300000
0"
0;
0<
1,
#1310000
1"
1;
1<
0,
#1320000
0"
0;
0<
1,
#1330000
1"
1;
1<
0,
#1340000
0"
0;
0<
1,
#1350000
1"
1;
1<
0,
#1360000
0"
0;
0<
1,
#1370000
1"
1;
1<
0,
#1380000
0"
0;
0<
1,
#1390000
1"
1;
1<
0,
#1400000
0"
0;
0<
1,
#1410000
1"
1;
1<
0,
#1420000
0"
0;
0<
1,
#1430000
1"
1;
1<
0,
#1440000
0"
0;
0<
1,
#1450000
1"
1;
1<
0,
#1460000
0"
0;
0<
1,
#1470000
1"
1;
1<
0,
#1480000
0"
0;
0<
1,
#1490000
1"
1;
1<
0,
#1500000
0"
0;
0<
1,
#1510000
1"
1;
1<
0,
#1520000
0"
0;
0<
1,
#1530000
1"
1;
1<
0,
#1540000
0"
0;
0<
1,
#1550000
1"
1;
1<
0,
#1560000
0"
0;
0<
1,
#1570000
1"
1;
1<
0,
#1580000
0"
0;
0<
1,
#1590000
1"
1;
1<
0,
#1600000
0"
0;
0<
1,
#1610000
1"
1;
1<
0,
#1620000
0"
0;
0<
1,
#1630000
1"
1;
1<
0,
#1640000
0"
0;
0<
1,
#1650000
1"
1;
1<
0,
#1660000
0"
0;
0<
1,
#1670000
1"
1;
1<
0,
#1680000
0"
0;
0<
1,
#1690000
1"
1;
1<
0,
#1700000
0"
0;
0<
1,
#1710000
1"
1;
1<
0,
#1720000
0"
0;
0<
1,
#1730000
1"
1;
1<
0,
#1740000
0"
0;
0<
1,
#1750000
1"
1;
1<
0,
#1760000
0"
0;
0<
1,
#1770000
1"
1;
1<
0,
#1780000
0"
0;
0<
1,
#1790000
1"
1;
1<
0,
#1800000
0"
0;
0<
1,
#1810000
1"
1;
1<
0,
#1820000
0"
0;
0<
1,
#1830000
1"
1;
1<
0,
#1840000
0"
0;
0<
1,
#1850000
1"
1;
1<
0,
#1860000
0"
0;
0<
1,
#1870000
1"
1;
1<
0,
#1880000
0"
0;
0<
1,
#1890000
1"
1;
1<
0,
#1900000
0"
0;
0<
1,
#1910000
1"
1;
1<
0,
#1920000
0"
0;
0<
1,
#1930000
1"
1;
1<
0,
#1940000
0"
0;
0<
1,
#1950000
1"
1;
1<
0,
#1960000
0"
0;
0<
1,
#1970000
1"
1;
1<
0,
#1980000
0"
0;
0<
1,
#1990000
1"
1;
1<
0,
